{ "id": "2",
  "name": "Designer Pants",
  "description": "A Designer pants for you to wear",
  "regPrice": "199.99",
  "salePrice": "179.99",
  "image": "pants",
  "colors":"red,yellow,green",
  "stores":"store #77,store #22,store #99"
}